UUU 23.2(  5307)  UCU 10.8(  2465)  UAU  8.1(  1858)  UGU  6.6(  1506)
UUC 13.6(  3107)  UCC 13.7(  3135)  UAC 18.2(  4149)  UGC 12.6(  2890)
UUA  5.2(  1184)  UCA  9.4(  2143)  UAA  0.6(   130)  UGA  1.3(   295)
UUG 15.6(  3556)  UCG 12.9(  2945)  UAG  0.6(   131)  UGG 11.8(  2691)

CUU 20.6(  4706)  CCU  8.3(  1897)  CAU  9.2(  2109)  CGU 14.4(  3282)
CUC 14.7(  3360)  CCC 12.1(  2763)  CAC 13.8(  3161)  CGC 18.0(  4116)
CUA  3.7(   834)  CCA 12.0(  2731)  CAA 11.7(  2665)  CGA  6.8(  1561)
CUG 28.4(  6480)  CCG 15.5(  3548)  CAG 24.2(  5529)  CGG  9.9(  2266)

AUU 20.7(  4734)  ACU 10.6(  2411)  AAU 16.6(  3782)  AGU 11.0(  2516)
AUC 14.7(  3351)  ACC 14.4(  3282)  AAC 21.1(  4832)  AGC 15.4(  3517)
AUA  5.3(  1203)  ACA 15.0(  3434)  AAA 16.1(  3684)  AGA  4.3(   974)
AUG 25.6(  5855)  ACG 24.9(  5679)  AAG 36.4(  8324)  AGG  7.3(  1676)

GUU 17.9(  4088)  GCU 17.1(  3901)  GAU 22.2(  5081)  GGU 18.7(  4265)
GUC 13.4(  3056)  GCC 24.8(  5657)  GAC 27.2(  6204)  GGC 26.8(  6126)
GUA  5.9(  1355)  GCA 18.8(  4301)  GAA 23.5(  5360)  GGA 12.4(  2842)
GUG 36.6(  8358)  GCG 29.3(  6703)  GAG 44.1( 10070)  GGG 14.7(  3368)

